…
  #re-calculate homes powered
  
  mutate(homes_powered = weight_tons * 500 / 30, 
         trash_wheel_type = "Mr. Trash Wheel",
         year = as.double(year)
         )|> 
  select(trash_wheel_type, everything())

mr_trash_wheel_df
## # A tibble: 584 × 15
##    trash_wheel_type dumpster month  year date                weight_tons
##    <chr>               <dbl> <chr> <dbl> <dttm>                    <dbl>
##  1 Mr. Trash Wheel         1 May    2014 2014-05-16 00:00:00        4.31
##  2 Mr. Trash Wheel         2 May    2014 2014-05-16 00:00:00        2.74
##  3 Mr. Trash Wheel         3 May    2014 2014-05-16 00:00:00        3.45
##  4 Mr. Trash Wheel         4 May    2014 2014-05-17 00:00:00        3.1 
##  5 Mr. Trash Wheel         5 May    2014 2014-05-17 00:00:00        4.06
##  6 Mr. Trash Wheel         6 May    2014 2014-05-20 00:00:00        2.71
##  7 Mr. Trash Wheel         7 May    2014 2014-05-21 00:00:00        1.91
##  8 Mr. Trash Wheel         8 May    2014 2014-05-28 00:00:00        3.7 
##  9 Mr. Trash Wheel         9 June   2014 2014-06-05 00:00:00        2.52
## 10 Mr. Trash Wheel        10 June   2014 2014-06-11 00:00:00        3.76
## # ℹ 574 more rows
## # ℹ 9 more variables: volume_cubic_yards <dbl>, plastic_bottles <dbl>,
## #   polystyrene <dbl>, cigarette_butts <dbl>, glass_bottles <dbl>,
## #   plastic_bags <dbl>, wrappers <dbl>, sports_balls <dbl>, homes_powered <dbl>
```
…
#re-calculate homes powered
  mutate(
    homes_powered = weight_tons * 500 / 30,
    trash_wheel_type = "Professor Trash Wheel"
    ) |> 
  select(trash_wheel_type, everything())
  
prof_trash_df
## # A tibble: 106 × 14
##    trash_wheel_type      dumpster month     year date                weight_tons
##    <chr>                    <dbl> <chr>    <dbl> <dttm>                    <dbl>
##  1 Professor Trash Wheel        1 January   2017 2017-01-02 00:00:00        1.79
##  2 Professor Trash Wheel        2 January   2017 2017-01-30 00:00:00        1.58
##  3 Professor Trash Wheel        3 February  2017 2017-02-26 00:00:00        2.32
##  4 Professor Trash Wheel        4 February  2017 2017-02-26 00:00:00        3.72
##  5 Professor Trash Wheel        5 February  2017 2017-02-28 00:00:00        1.45
##  6 Professor Trash Wheel        6 March     2017 2017-03-30 00:00:00        1.71
##  7 Professor Trash Wheel        7 April     2017 2017-04-01 00:00:00        1.82
##  8 Professor Trash Wheel        8 April     2017 2017-04-20 00:00:00        2.37
##  9 Professor Trash Wheel        9 May       2017 2017-05-10 00:00:00        2.64
## 10 Professor Trash Wheel       10 May       2017 2017-05-26 00:00:00        2.78
## # ℹ 96 more rows
## # ℹ 8 more variables: volume_cubic_yards <dbl>, plastic_bottles <dbl>,
## #   polystyrene <dbl>, cigarette_butts <dbl>, glass_bottles <dbl>,
## #   plastic_bags <dbl>, wrappers <dbl>, homes_powered <dbl>
```
…
#re-calculate homes powered
  mutate(
    homes_powered = weight_tons * 500 / 30,
    trash_wheel_type = "Gwynnda Trash Wheel"
    ) |> 
  select(trash_wheel_type, everything())

gwynnda_trash_df
## # A tibble: 155 × 13
##    trash_wheel_type    dumpster month   year date                weight_tons
##    <chr>                  <dbl> <chr>  <dbl> <dttm>                    <dbl>
##  1 Gwynnda Trash Wheel        1 July    2021 2021-07-03 00:00:00        0.93
##  2 Gwynnda Trash Wheel        2 July    2021 2021-07-07 00:00:00        2.26
##  3 Gwynnda Trash Wheel        3 July    2021 2021-07-07 00:00:00        1.62
##  4 Gwynnda Trash Wheel        4 July    2021 2021-07-16 00:00:00        1.76
##  5 Gwynnda Trash Wheel        5 July    2021 2021-07-30 00:00:00        1.53
##  6 Gwynnda Trash Wheel        6 August  2021 2021-08-11 00:00:00        2.06
##  7 Gwynnda Trash Wheel        7 August  2021 2021-08-14 00:00:00        1.9 
##  8 Gwynnda Trash Wheel        8 August  2021 2021-08-16 00:00:00        2.16
##  9 Gwynnda Trash Wheel        9 August  2021 2021-08-16 00:00:00        2.6 
## 10 Gwynnda Trash Wheel       10 August  2021 2021-08-17 00:00:00        3.21
## # ℹ 145 more rows
## # ℹ 7 more variables: volume_cubic_yards <dbl>, plastic_bottles <dbl>,
## #   polystyrene <dbl>, cigarette_butts <dbl>, plastic_bags <dbl>,
## #   wrappers <dbl>, homes_powered <dbl>
```

Finally, we merge all three dateframes above and calculate total weight
of trash collected by Professor Trash Wheel and the total number of
cigarette butts collected by Gwynnda in July of 2021.

``` r
# merge all three dataframes 
data_all = bind_rows(mr_trash_wheel_df, prof_trash_df, gwynnda_trash_df) 

data_all
## # A tibble: 845 × 15
##    trash_wheel_type dumpster month  year date                weight_tons
##    <chr>               <dbl> <chr> <dbl> <dttm>                    <dbl>
##  1 Mr. Trash Wheel         1 May    2014 2014-05-16 00:00:00        4.31
##  2 Mr. Trash Wheel         2 May    2014 2014-05-16 00:00:00        2.74
##  3 Mr. Trash Wheel         3 May    2014 2014-05-16 00:00:00        3.45
##  4 Mr. Trash Wheel         4 May    2014 2014-05-17 00:00:00        3.1 
##  5 Mr. Trash Wheel         5 May    2014 2014-05-17 00:00:00        4.06
##  6 Mr. Trash Wheel         6 May    2014 2014-05-20 00:00:00        2.71
##  7 Mr. Trash Wheel         7 May    2014 2014-05-21 00:00:00        1.91
##  8 Mr. Trash Wheel         8 May    2014 2014-05-28 00:00:00        3.7 
##  9 Mr. Trash Wheel         9 June   2014 2014-06-05 00:00:00        2.52
## 10 Mr. Trash Wheel        10 June   2014 2014-06-11 00:00:00        3.76
## # ℹ 835 more rows
## # ℹ 9 more variables: volume_cubic_yards <dbl>, plastic_bottles <dbl>,
## #   polystyrene <dbl>, cigarette_butts <dbl>, glass_bottles <dbl>,
## #   plastic_bags <dbl>, wrappers <dbl>, sports_balls <dbl>, homes_powered <dbl>
…
